{
    "type": "application",
    "source-directories": [
        "src",
        "tests"
    ],
    "elm-version": "0.19.0",
    "dependencies": {
        "direct": {
            "elm/browser": "1.0.1",
            "elm/core": "1.0.0",
            "elm/html": "1.0.0",
            "elm/svg": "1.0.1",
            "elm-explorations/test": "1.2.2",
            "krisajenkins/remotedata": "5.0.0",
            "mdgriffith/style-elements": "5.0.1",
            "rtfeldman/elm-css": "16.0.1"
        },
        "indirect": {
            "Skinney/murmur3": "2.0.8",
            "elm/http": "1.0.0",
            "elm/json": "1.0.0",
            "elm/random": "1.0.0",
            "elm/regex": "1.0.0",
            "elm/time": "1.0.0",
            "elm/url": "1.0.0",
            "elm/virtual-dom": "1.0.2",
            "rtfeldman/elm-hex": "1.0.0"
        }
    },
    "test-dependencies": {
        "direct": {},
        "indirect": {}
    }
}
